-- Merging decision tree log ---
manifest
ADDED from C:\flutter\.pub-cache\git\facebook_audience_network-930dc87dfd631aa41088539e8b4e3c9b37a75652\android\src\main\AndroidManifest.xml:1:1-5:12
INJECTED from C:\flutter\.pub-cache\git\facebook_audience_network-930dc87dfd631aa41088539e8b4e3c9b37a75652\android\src\main\AndroidManifest.xml:1:1-5:12
INJECTED from C:\flutter\.pub-cache\git\facebook_audience_network-930dc87dfd631aa41088539e8b4e3c9b37a75652\android\src\main\AndroidManifest.xml:1:1-5:12
	package
		ADDED from C:\flutter\.pub-cache\git\facebook_audience_network-930dc87dfd631aa41088539e8b4e3c9b37a75652\android\src\main\AndroidManifest.xml:2:3-46
		INJECTED from C:\flutter\.pub-cache\git\facebook_audience_network-930dc87dfd631aa41088539e8b4e3c9b37a75652\android\src\main\AndroidManifest.xml
		INJECTED from C:\flutter\.pub-cache\git\facebook_audience_network-930dc87dfd631aa41088539e8b4e3c9b37a75652\android\src\main\AndroidManifest.xml
	xmlns:android
		ADDED from C:\flutter\.pub-cache\git\facebook_audience_network-930dc87dfd631aa41088539e8b4e3c9b37a75652\android\src\main\AndroidManifest.xml:1:11-69
application
ADDED from C:\flutter\.pub-cache\git\facebook_audience_network-930dc87dfd631aa41088539e8b4e3c9b37a75652\android\src\main\AndroidManifest.xml:3:3-4:45
	android:hardwareAccelerated
		ADDED from C:\flutter\.pub-cache\git\facebook_audience_network-930dc87dfd631aa41088539e8b4e3c9b37a75652\android\src\main\AndroidManifest.xml:4:9-43
uses-sdk
INJECTED from C:\flutter\.pub-cache\git\facebook_audience_network-930dc87dfd631aa41088539e8b4e3c9b37a75652\android\src\main\AndroidManifest.xml reason: use-sdk injection requested
INJECTED from C:\flutter\.pub-cache\git\facebook_audience_network-930dc87dfd631aa41088539e8b4e3c9b37a75652\android\src\main\AndroidManifest.xml
INJECTED from C:\flutter\.pub-cache\git\facebook_audience_network-930dc87dfd631aa41088539e8b4e3c9b37a75652\android\src\main\AndroidManifest.xml
	android:minSdkVersion
		INJECTED from C:\flutter\.pub-cache\git\facebook_audience_network-930dc87dfd631aa41088539e8b4e3c9b37a75652\android\src\main\AndroidManifest.xml
		ADDED from C:\flutter\.pub-cache\git\facebook_audience_network-930dc87dfd631aa41088539e8b4e3c9b37a75652\android\src\main\AndroidManifest.xml
		INJECTED from C:\flutter\.pub-cache\git\facebook_audience_network-930dc87dfd631aa41088539e8b4e3c9b37a75652\android\src\main\AndroidManifest.xml
