-- Merging decision tree log ---
manifest
ADDED from C:\flutter\.pub-cache\hosted\pub.dartlang.org\uni_links2-0.6.0+2\android\src\main\AndroidManifest.xml:1:1-3:12
INJECTED from C:\flutter\.pub-cache\hosted\pub.dartlang.org\uni_links2-0.6.0+2\android\src\main\AndroidManifest.xml:1:1-3:12
INJECTED from C:\flutter\.pub-cache\hosted\pub.dartlang.org\uni_links2-0.6.0+2\android\src\main\AndroidManifest.xml:1:1-3:12
	package
		ADDED from C:\flutter\.pub-cache\hosted\pub.dartlang.org\uni_links2-0.6.0+2\android\src\main\AndroidManifest.xml:2:3-33
		INJECTED from C:\flutter\.pub-cache\hosted\pub.dartlang.org\uni_links2-0.6.0+2\android\src\main\AndroidManifest.xml
		INJECTED from C:\flutter\.pub-cache\hosted\pub.dartlang.org\uni_links2-0.6.0+2\android\src\main\AndroidManifest.xml
	xmlns:android
		ADDED from C:\flutter\.pub-cache\hosted\pub.dartlang.org\uni_links2-0.6.0+2\android\src\main\AndroidManifest.xml:1:11-69
uses-sdk
INJECTED from C:\flutter\.pub-cache\hosted\pub.dartlang.org\uni_links2-0.6.0+2\android\src\main\AndroidManifest.xml reason: use-sdk injection requested
INJECTED from C:\flutter\.pub-cache\hosted\pub.dartlang.org\uni_links2-0.6.0+2\android\src\main\AndroidManifest.xml
INJECTED from C:\flutter\.pub-cache\hosted\pub.dartlang.org\uni_links2-0.6.0+2\android\src\main\AndroidManifest.xml
	android:minSdkVersion
		INJECTED from C:\flutter\.pub-cache\hosted\pub.dartlang.org\uni_links2-0.6.0+2\android\src\main\AndroidManifest.xml
		ADDED from C:\flutter\.pub-cache\hosted\pub.dartlang.org\uni_links2-0.6.0+2\android\src\main\AndroidManifest.xml
		INJECTED from C:\flutter\.pub-cache\hosted\pub.dartlang.org\uni_links2-0.6.0+2\android\src\main\AndroidManifest.xml
