-- Merging decision tree log ---
manifest
ADDED from C:\flutter\.pub-cache\git\razorpay-flutter-251b3779995fe3464897782b93ff81df14fa2abf\android\src\main\AndroidManifest.xml:1:1-9:12
INJECTED from C:\flutter\.pub-cache\git\razorpay-flutter-251b3779995fe3464897782b93ff81df14fa2abf\android\src\main\AndroidManifest.xml:1:1-9:12
INJECTED from C:\flutter\.pub-cache\git\razorpay-flutter-251b3779995fe3464897782b93ff81df14fa2abf\android\src\main\AndroidManifest.xml:1:1-9:12
	package
		ADDED from C:\flutter\.pub-cache\git\razorpay-flutter-251b3779995fe3464897782b93ff81df14fa2abf\android\src\main\AndroidManifest.xml:2:3-42
		INJECTED from C:\flutter\.pub-cache\git\razorpay-flutter-251b3779995fe3464897782b93ff81df14fa2abf\android\src\main\AndroidManifest.xml
		INJECTED from C:\flutter\.pub-cache\git\razorpay-flutter-251b3779995fe3464897782b93ff81df14fa2abf\android\src\main\AndroidManifest.xml
	xmlns:android
		ADDED from C:\flutter\.pub-cache\git\razorpay-flutter-251b3779995fe3464897782b93ff81df14fa2abf\android\src\main\AndroidManifest.xml:1:11-69
application
ADDED from C:\flutter\.pub-cache\git\razorpay-flutter-251b3779995fe3464897782b93ff81df14fa2abf\android\src\main\AndroidManifest.xml:3:5-8:19
activity#com.razorpay.CheckoutActivity
ADDED from C:\flutter\.pub-cache\git\razorpay-flutter-251b3779995fe3464897782b93ff81df14fa2abf\android\src\main\AndroidManifest.xml:4:9-7:20
	android:label
		ADDED from C:\flutter\.pub-cache\git\razorpay-flutter-251b3779995fe3464897782b93ff81df14fa2abf\android\src\main\AndroidManifest.xml:6:17-50
	android:name
		ADDED from C:\flutter\.pub-cache\git\razorpay-flutter-251b3779995fe3464897782b93ff81df14fa2abf\android\src\main\AndroidManifest.xml:5:17-61
uses-sdk
INJECTED from C:\flutter\.pub-cache\git\razorpay-flutter-251b3779995fe3464897782b93ff81df14fa2abf\android\src\main\AndroidManifest.xml reason: use-sdk injection requested
INJECTED from C:\flutter\.pub-cache\git\razorpay-flutter-251b3779995fe3464897782b93ff81df14fa2abf\android\src\main\AndroidManifest.xml
INJECTED from C:\flutter\.pub-cache\git\razorpay-flutter-251b3779995fe3464897782b93ff81df14fa2abf\android\src\main\AndroidManifest.xml
	android:minSdkVersion
		INJECTED from C:\flutter\.pub-cache\git\razorpay-flutter-251b3779995fe3464897782b93ff81df14fa2abf\android\src\main\AndroidManifest.xml
		ADDED from C:\flutter\.pub-cache\git\razorpay-flutter-251b3779995fe3464897782b93ff81df14fa2abf\android\src\main\AndroidManifest.xml
		INJECTED from C:\flutter\.pub-cache\git\razorpay-flutter-251b3779995fe3464897782b93ff81df14fa2abf\android\src\main\AndroidManifest.xml
